{
  "type": "service_account",
  "project_id": "apis-1066",
  "private_key_id": "9ff8300ff155899fab437be86d413faac8ce007f",
  "private_key": "-----BEGIN PRIVATE KEY-----\nMIIEvQIBADANBgkqhkiG9w0BAQEFAASCBKcwggSjAgEAAoIBAQCOthS8fFu7H533\nIKVHKDR5LBVQU5DU6PSGZtzq/8SQsuRnQLrBuzFIAdeK6Vqbbr1eVnmu5l9xjea1\nD4yg0hSLNpnkr1lJGBmI/jXU9UZCvGPi2Mmk4DrasZIm0FrAOyt2JOZwcBuh7AIs\nPB07ss8TpzNDByXUvihUgMUPj5t+nA8+k+t0uQenOv9b579dzg55mMSnn7x3anuZ\njyiOT5+Ji6qt87Knz48ZCXJcgiWDAEMybnfSonK2WZdpWOw5wizDKLrmDOK3suMy\nVacsH1/7YXMHM6hd9TPcITDdFmQRiFvb9m/els3Wgu2d4Gdp0MVU31vVb0F78wCf\nBSJJrUrFAgMBAAECggEAEaUTpUZe9SDwoAiKRuUCr+Syce8THi/7Y86+C9Q50oY7\n1URcku15J2UK6GL3z/X+NfbNLsHPFTQtTT+x7IRtA9Vpa6v+hxoStixwLXdyC3hN\nhVO2gssym62O23uxbMkkE4R2dXp3ACs1DZEVMDdogQ6QOP5eQBKO2/vb4ZOo7xtf\nOqNBEnZi7bCYn72NyiUxyE+sxCuz6jCmFuXRxjepbjJzpZpkLZ0HqQ7B6A40PUr/\nsD7rrxZohysMfj4/gf912bl0u5gftpRCAuD0+ZZOE2Hy7++Lvofnr3F7CIYuA11K\nOZ9IBvJ/+nh3y9EvwW/u2zTltqUf18QoP8Ix8/u6FQKBgQDICRVnoht1+mYj/uXC\nsBXxrzA77iCQlj+6nEW10AbRlYUwTbo29HiirjroCoKgBywJh/FNzV59a0IAv4Ol\n6jl4N1dNCo8ms9MjCI/Qv0w1I4STeCj1dVBP0Qj5xvqnA81l7NpzD7zyMf0Gfnbp\nTBlG4/E0Z7YztLm7tsHFjbcGTwKBgQC2o1QgP/H5TGyGrswKZkmR7CKt0edMzZfO\nDT6PFM3zFGl/BLKeW7F+H1lUniJkGwURqUTmGEgb6eSjq6x2zGxOx0xoO3HAOfZq\nel4/fK0DbLq1/FbRLDOXMpS1hbh0n+8qacUV6tuI5qIzshmbWgnA4JasxDrzJgj2\nbq2mqCGsqwKBgECrBxt4wc3zRIAQkLDPAlke3MYTJr33hOTMTpEHjpzE7Mj/59qK\nUFGvZ+XKOA6KIwd1xmHzqb98JFtfjqzduvSNV5DVgA/wBKsHwo6muXlYYSzXpM4t\nvef/2Rn+5NuHlCiGWNzn0pqt5HHsAn9LlcRgPoNFoBa5L25rF9vJA8lrAoGASkEL\nUfVNltLoiLWGhW/i124PB2aAyKwJ3R9rYNbPiNWyso6hZFrZRfLO6eVFDDgkDnMo\nbPhQUPD+IUEJ5F7mZf0HZpVMgR/PvKi1qtAws2TAYH8QeQikjQNmjIqqXNgtb6wD\nEg8jZHyIU8ZEPPIVZxKoj+NUKEk9eZu0BD71OfMCgYEAkt9pKYjGIrVW5PrjmtGn\n5B1lEwbdBK1g+sQqT2tvij3qKSIA1/0k6IkxCpAyc4huJ6m3ssNagoRvjOxaxlSv\n2lcRJwu3tkyxBUfuvL1SA+iQHBXMbo061PC2loswpa8cCQ9y1R8FI0+0yAYqSwZA\nNsu1QDfVpDH2s2509/sePFU=\n-----END PRIVATE KEY-----\n",
  "client_email": "421741924511-compute@developer.gserviceaccount.com",
  "client_id": "",
  "auth_uri": "https://accounts.google.com/o/oauth2/auth",
  "token_uri": "https://oauth2.googleapis.com/token",
  "auth_provider_x509_cert_url": "https://www.googleapis.com/oauth2/v1/certs",
  "client_x509_cert_url": "https://www.googleapis.com/robot/v1/metadata/x509/421741924511-compute%40developer.gserviceaccount.com"
}
